<?xml version="1.0" encoding="utf-8"?>
<!-- Generator: Adobe Illustrator 23.0.4, SVG Export Plug-In . SVG Version: 6.00 Build 0)  -->
<svg version="1.1" id="Layer_1" xmlns="http://www.w3.org/2000/svg" xmlns:xlink="http://www.w3.org/1999/xlink" x="0px" y="0px"
	 viewBox="0 0 376.12 117.93" style="enable-background:new 0 0 376.12 117.93;" xml:space="preserve">
<style type="text/css">
	.st0{fill:#00C0DE;}
	.st1{fill:#FFFFFF;}
	.st2{fill:#141414;}
</style>
<path class="st0" d="M118.35,33.85c4.87,0,7.81,2.14,9.39,4.33l-4.08,3.88c-1.13-1.69-2.85-2.59-5.01-2.59
	c-3.78,0-6.44,2.79-6.44,6.97s2.66,7.02,6.44,7.02c2.16,0,3.88-1,5.01-2.59l4.08,3.83c-1.57,2.24-4.52,4.38-9.39,4.38
	c-7.32,0-12.58-5.23-12.58-12.64C105.77,39.08,111.03,33.85,118.35,33.85"/>
<path class="st0" d="M153.84,46.44c0-3.73-2.21-6.97-6.1-6.97c-3.88,0-6.04,3.24-6.04,6.97c0,3.78,2.16,7.02,6.04,7.02
	C151.62,53.46,153.84,50.22,153.84,46.44 M135.21,46.44c0-6.82,4.72-12.59,12.53-12.59c7.86,0,12.58,5.77,12.58,12.59
	c0,6.87-4.72,12.64-12.58,12.64C139.93,59.08,135.21,53.31,135.21,46.44"/>
<path class="st0" d="M186.18,42.21c-1.03-1.59-3.29-2.74-5.41-2.74c-3.54,0-6,2.84-6,7.02c0,4.13,2.46,6.97,6,6.97
	c2.11,0,4.37-1.14,5.41-2.74V42.21z M186.18,55.4c-1.87,2.39-4.47,3.68-7.32,3.68c-6,0-10.52-4.58-10.52-12.59
	c0-7.86,4.47-12.64,10.52-12.64c2.8,0,5.45,1.24,7.32,3.68V25.29h6.29v33.2h-6.29V55.4z"/>
<path class="st0" d="M208.5,44.2h11.7c-0.15-2.29-1.72-5.33-5.85-5.33C210.46,38.88,208.79,41.81,208.5,44.2 M214.35,33.85
	c7.08,0,11.89,5.37,11.89,13.24v1.39H208.6c0.39,3.04,2.8,5.58,6.83,5.58c2.21,0,4.82-0.9,6.34-2.39l2.75,4.08
	c-2.36,2.19-6.09,3.33-9.78,3.33c-7.22,0-12.68-4.93-12.68-12.64C202.06,39.47,207.12,33.85,214.35,33.85"/>
<path class="st0" d="M66.7,33H32.59c-1.53,0-2.77-1.26-2.77-2.81v-0.66c0-2.35,1.88-4.25,4.2-4.25h31.26c2.32,0,4.2,1.9,4.2,4.25
	v0.66C69.47,31.75,68.23,33,66.7,33"/>
<path class="st0" d="M66.7,65.17H32.59c-1.53,0-2.77,1.26-2.77,2.81v0.66c0,2.35,1.88,4.25,4.2,4.25h31.26c2.32,0,4.2-1.9,4.2-4.25
	v-0.66C69.47,66.43,68.23,65.17,66.7,65.17"/>
<path class="st0" d="M36.83,42.97h-7.9c-1.55,0-2.81-1.27-2.81-2.84V38.1c0-1.57,1.26-2.84,2.81-2.84h7.9c1.44,0,2.6,1.18,2.6,2.63
	v2.45C39.43,41.79,38.27,42.97,36.83,42.97"/>
<path class="st0" d="M36.69,52.94h-9.13c-1.34,0-2.42-1.1-2.42-2.45v-2.81c0-1.35,1.08-2.45,2.42-2.45h9.13
	c0.97,0,1.76,0.8,1.76,1.78v4.16C38.44,52.15,37.66,52.94,36.69,52.94"/>
<path class="st0" d="M36.83,62.91h-7.9c-1.55,0-2.81-1.27-2.81-2.84v-2.03c0-1.57,1.26-2.84,2.81-2.84h7.9c1.44,0,2.6,1.18,2.6,2.63
	v2.45C39.43,61.73,38.27,62.91,36.83,62.91"/>
<path class="st0" d="M70.41,62.91h-7.9c-1.55,0-2.81-1.27-2.81-2.84v-2.03c0-1.57,1.26-2.84,2.81-2.84h7.9c1.43,0,2.6,1.18,2.6,2.63
	v2.45C73.01,61.73,71.85,62.91,70.41,62.91"/>
<path class="st2" d="M118.35,67.59c4.87,0,7.81,2.14,9.39,4.33l-4.08,3.88c-1.13-1.69-2.85-2.59-5.01-2.59
	c-3.78,0-6.44,2.79-6.44,6.97c0,4.18,2.66,7.02,6.44,7.02c2.16,0,3.88-1,5.01-2.59l4.08,3.83c-1.57,2.24-4.52,4.38-9.39,4.38
	c-7.32,0-12.58-5.23-12.58-12.64C105.77,72.81,111.02,67.59,118.35,67.59"/>
<path class="st2" d="M153.84,80.18c0-3.73-2.21-6.97-6.1-6.97c-3.88,0-6.04,3.24-6.04,6.97c0,3.78,2.16,7.02,6.04,7.02
	C151.62,87.2,153.84,83.96,153.84,80.18 M135.21,80.18c0-6.82,4.72-12.59,12.53-12.59c7.86,0,12.58,5.77,12.58,12.59
	c0,6.87-4.72,12.64-12.58,12.64C139.93,92.82,135.21,87.05,135.21,80.18"/>
<path class="st2" d="M185.89,77.69c0-3.33-1.72-4.48-4.38-4.48c-2.46,0-4.37,1.39-5.41,2.84v16.18h-6.24V68.19h6.24v3.14
	c1.52-1.84,4.42-3.73,8.31-3.73c5.21,0,7.72,2.98,7.72,7.66v16.97h-6.24V77.69z"/>
<path class="st2" d="M203.88,84.66c1.72,1.64,5.26,3.29,8.21,3.29c2.7,0,3.98-0.94,3.98-2.44c0-1.69-2.06-2.29-4.77-2.84
	c-4.08-0.8-9.34-1.79-9.34-7.51c0-4.03,3.49-7.56,9.73-7.56c4.03,0,7.22,1.39,9.58,3.28l-2.51,4.33c-1.42-1.54-4.13-2.79-7.03-2.79
	c-2.26,0-3.74,0.85-3.74,2.24c0,1.49,1.87,2.04,4.52,2.59c4.08,0.8,9.53,1.89,9.53,7.86c0,4.38-3.69,7.71-10.27,7.71
	c-4.13,0-8.11-1.39-10.62-3.73L203.88,84.66z"/>
<polygon class="st2" points="232.83,61.62 232.83,68.19 228.9,68.19 228.9,73.71 232.83,73.71 232.83,92.22 239.12,92.22 
	239.12,73.71 243.94,73.71 243.94,68.19 239.12,68.19 239.12,61.62 "/>
<path class="st2" d="M253.13,68.19h6.24v3.29c1.67-2.14,4.62-3.83,7.57-3.83v6.17c-0.44-0.1-1.03-0.2-1.72-0.2
	c-2.06,0-4.82,1.19-5.85,2.74v15.88h-6.24V68.19z"/>
<path class="st2" d="M291.76,89.19c-1.62,1.84-4.47,3.63-8.36,3.63c-5.21,0-7.67-2.89-7.67-7.56V68.19h6.24v14.58
	c0,3.33,1.72,4.43,4.37,4.43c2.41,0,4.32-1.34,5.41-2.74V68.19h6.24v24.04h-6.24V89.19z"/>
<path class="st2" d="M320.18,67.59c4.87,0,7.81,2.14,9.39,4.33l-4.08,3.88c-1.13-1.69-2.85-2.59-5.01-2.59
	c-3.79,0-6.44,2.79-6.44,6.97c0,4.18,2.65,7.02,6.44,7.02c2.16,0,3.88-1,5.01-2.59l4.08,3.83c-1.57,2.24-4.52,4.38-9.39,4.38
	c-7.33,0-12.58-5.23-12.58-12.64C307.59,72.81,312.85,67.59,320.18,67.59"/>
<polygon class="st2" points="339.79,61.62 339.79,68.19 335.86,68.19 335.86,73.71 339.79,73.71 339.79,92.22 346.08,92.22 
	346.08,73.71 350.9,73.71 350.9,68.19 346.08,68.19 346.08,61.62 "/>
<path class="st0" d="M70.41,42.97h-7.9c-1.55,0-2.81-1.27-2.81-2.84V38.1c0-1.57,1.26-2.84,2.81-2.84h7.9c1.43,0,2.6,1.18,2.6,2.63
	v2.45C73.01,41.79,71.85,42.97,70.41,42.97"/>
<path class="st2" d="M49.4,85.11h34.12c1.53,0,2.77,1.26,2.77,2.81v0.66c0,2.35-1.88,4.25-4.2,4.25H50.82c-2.32,0-4.2-1.9-4.2-4.25
	v-0.66C46.63,86.37,47.87,85.11,49.4,85.11"/>
<path class="st2" d="M49.4,52.94h34.12c1.53,0,2.77-1.26,2.77-2.81v-0.66c0-2.35-1.88-4.25-4.2-4.25H50.82c-2.32,0-4.2,1.9-4.2,4.25
	v0.66C46.63,51.69,47.87,52.94,49.4,52.94"/>
<path class="st2" d="M79.26,75.14h7.9c1.55,0,2.81,1.27,2.81,2.84v2.03c0,1.57-1.26,2.84-2.81,2.84h-7.9c-1.44,0-2.6-1.18-2.6-2.63
	v-2.45C76.66,76.32,77.83,75.14,79.26,75.14"/>
<path class="st2" d="M79.41,65.17h9.13c1.34,0,2.42,1.1,2.42,2.45v2.81c0,1.35-1.08,2.45-2.42,2.45h-9.13
	c-0.97,0-1.76-0.8-1.76-1.78v-4.16C77.66,65.97,78.44,65.17,79.41,65.17"/>
<path class="st2" d="M79.26,55.2h7.9c1.55,0,2.81,1.27,2.81,2.84v2.03c0,1.57-1.26,2.84-2.81,2.84h-7.9c-1.44,0-2.6-1.18-2.6-2.63
	v-2.45C76.66,56.38,77.83,55.2,79.26,55.2"/>
<path class="st2" d="M45.68,75.14h7.9c1.55,0,2.81,1.27,2.81,2.84v2.03c0,1.57-1.26,2.84-2.81,2.84h-7.9c-1.44,0-2.6-1.18-2.6-2.63
	v-2.45C43.09,76.32,44.25,75.14,45.68,75.14"/>
<path class="st2" d="M45.68,55.2h7.9c1.55,0,2.81,1.27,2.81,2.84v2.03c0,1.57-1.26,2.84-2.81,2.84h-7.9c-1.44,0-2.6-1.18-2.6-2.63
	v-2.45C43.09,56.38,44.25,55.2,45.68,55.2"/>
</svg>
